[gd_scene load_steps=5 format=2]

[ext_resource path="res://Graphics/Tasks/puddle1.png" type="Texture" id=1]
[ext_resource path="res://Scenes/Actors/ToMop.tscn" type="PackedScene" id=2]
[ext_resource path="res://Graphics/Tasks/stain_outline.png" type="Texture" id=3]

[sub_resource type="CircleShape2D" id=1]
radius = 24.0

[node name="Puddle1" instance=ExtResource( 2 )]

[node name="CollisionShape2D" parent="StaticBody2D" index="0"]
shape = SubResource( 1 )

[node name="Outline" parent="." index="2"]
scale = Vector2( 0.75, 0.75 )
texture = ExtResource( 3 )

[node name="Sprite" parent="." index="3"]
texture = ExtResource( 1 )
offset = Vector2( 0, 0 )
