[gd_scene load_steps=3 format=2]

[ext_resource path="res://Scenes/Actors/StaticObject.tscn" type="PackedScene" id=1]
[ext_resource path="res://Graphics/Decor/Objects/Chambre_enfant/obj_table-nuit.png" type="Texture" id=2]

[node name="BedsideTableKid" instance=ExtResource( 1 )]

[node name="Sprite" parent="." index="0"]
texture = ExtResource( 2 )
offset = Vector2( 2, -17 )

[node name="CollisionPolygon2D" parent="." index="1"]
polygon = PoolVector2Array( -4, 16, -30, 4, 0, -12, 26, 0 )
