[gd_scene load_steps=3 format=2]

[ext_resource path="res://Scenes/Actors/StaticObject.tscn" type="PackedScene" id=1]
[ext_resource path="res://Graphics/Tasks/obj_table_grande_sale.png" type="Texture" id=2]

[node name="TableLarge_F_D" instance=ExtResource( 1 )]

[node name="Sprite" parent="." index="0"]
texture = ExtResource( 2 )
offset = Vector2( 0, -52 )

[node name="CollisionPolygon2D" parent="." index="1"]
polygon = PoolVector2Array( 24, -52, -132, 16, -132, 28, -28, 80, 128, 0 )
