[gd_scene load_steps=4 format=2]

[ext_resource path="res://Graphics/Decor/Walls/mur_fenetre_2_flip_transparente.png" type="Texture" id=1]
[ext_resource path="res://Scenes/Actors/DynamicWall.tscn" type="PackedScene" id=2]
[ext_resource path="res://Graphics/Decor/Walls/mur_salon-cuisine_6_flip_abaisse.png" type="Texture" id=3]

[node name="W_Win_2_" instance=ExtResource( 2 )]
_LoweredSprite = ExtResource( 3 )

[node name="Sprite" parent="." index="0"]
texture = ExtResource( 1 )
